
(;GM[1]AP[GOWrite:3.0.15]SZ[19]ST[2]FF[4]CA[UTF-8]FG[259:]C[Black to take corner]PB[ ]AW[pr][qe][re][bp][cc][cp][pg][dp][fc][ic][fd][fq][be][qi][kq][nq]PM[2]PW[ ]GN[ ]AB[rd][qq][bo][co][eb][ec][qn][dd][ck][kc][ce][pp][cf][pd][qd][dm]
;W[bd];B[bf];W[bb];B[ca];W[ba];B[ac];W[ab];B[ae]
;W[ad]C[Correct]
)
