
(;GM[1]AP[GOWrite:3.0.15]SZ[19]ST[2]FF[4]CA[UTF-8]FG[259:]C[Black to invade corner]PB[ ]AW[pf][qf][pp][jc][mf][qj]PM[2]PW[ ]GN[ ]AB[cn][qe][nc][md][dc][pd][dp]
;W[rc];B[rd];W[qc];B[pc];W[qd];B[re];W[rb];B[pe];W[pb];B[ob]
;W[qa]C[Correct]
)
