
(;FF[4]GM[1]CA[UTF-8]ST[2]AP[GOWrite:3.0.15]SZ[19]FG[259:]AW[oc][qc]GN[ ]PM[2]AB[mc][qd]PW[ ]PB[ ]
;B[rc];W[pd];B[qb];W[pc];B[qe];W[pf];B[qf];W[pg];B[qg];W[ph];B[pe];W[oe];B[nd];W[od];B[qh];W[pi];B[mf]
)
