
(;GM[1]AP[GOWrite:3.0.15]CA[UTF-8]ST[2]SZ[19]FF[4]C[Black to play]PB[ ]GN[ ]PM[2]AB[cd][eq][dn][bf][cc][dp][bg]AW[bo][qf][dc][fp][dd][jp][fq][nc][de][jd][cf][pj][pd]FG[259:]PW[ ]
;B[fr];W[gr];B[cl];W[cq];B[cp];W[er];B[dr];W[fs]
;C[Correct]B[dq]
)
