
(;GM[1]AP[GOWrite:3.0.15]CA[UTF-8]ST[2]SZ[19]FF[4]AB[eq][dn][hr][dp]FG[259:]PW[ ]GN[ ]PM[2]C[Black to play]AW[fp][jp][fq][fr]PB[ ]
;B[hp];W[ho];B[io];W[eo];B[ip];W[do];B[co];W[cn];B[cp];W[dm];B[bn];W[en]
;C[Correct]B[bm]
)
